[gd_scene load_steps=11 format=2]

[ext_resource path="res://GameController/GameController.gd" type="Script" id=1]
[ext_resource path="res://Icons/upicon.png" type="Texture" id=2]
[ext_resource path="res://Icons/downicon.png" type="Texture" id=3]
[ext_resource path="res://Icons/lefticon.png" type="Texture" id=4]
[ext_resource path="res://Icons/righticon.png" type="Texture" id=5]
[ext_resource path="res://tilesets/grid_lines/grid_lines_tileset.tres" type="TileSet" id=6]
[ext_resource path="res://tilesets/grid/grid_tileset.tres" type="TileSet" id=7]
[ext_resource path="res://grid/grid.gd" type="Script" id=8]
[ext_resource path="res://pawns/Actor.tscn" type="PackedScene" id=9]
[ext_resource path="res://pawns/pawn.gd" type="Script" id=10]

[node name="Game" type="Node"]
script = ExtResource( 1 )
atual_stage = 2
total_moves = 33

[node name="Panel" type="Panel" parent="."]
editor/display_folded = true
margin_left = 1028.0
margin_top = 10.0
margin_right = 1261.0
margin_bottom = 544.0

[node name="pm_label" type="Label" parent="Panel"]
margin_left = 143.607
margin_top = 71.2494
margin_right = 193.607
margin_bottom = 86.2494
text = "MOVES"

[node name="possible_moves" type="ItemList" parent="Panel"]
margin_left = 132.0
margin_top = 91.0
margin_right = 207.0
margin_bottom = 373.0
items = [ "", ExtResource( 2 ), false, "", ExtResource( 3 ), false, "", ExtResource( 4 ), false, "", ExtResource( 5 ), false ]

[node name="lom_label" type="Label" parent="Panel"]
margin_left = 50.3805
margin_top = 75.2262
margin_right = 92.3805
margin_bottom = 89.2262
text = "RAM"

[node name="list_of_moves" type="ItemList" parent="Panel"]
margin_left = 20.0
margin_top = 94.0
margin_right = 116.0
margin_bottom = 323.0
allow_rmb_select = true

[node name="rm_label" type="Label" parent="Panel"]
margin_left = 27.0
margin_top = 15.0
margin_right = 198.0
margin_bottom = 40.0

[node name="letsgo" type="Button" parent="Panel"]
margin_left = 62.6667
margin_top = 387.76
margin_right = 168.667
margin_bottom = 418.76
text = "LETS GO!!"

[node name="clear" type="Button" parent="Panel"]
margin_left = 19.0
margin_top = 336.0
margin_right = 114.0
margin_bottom = 356.0
text = "Clear"

[node name="success_panel" type="Panel" parent="Panel"]
editor/display_folded = true
margin_left = 27.0
margin_top = 431.0
margin_right = 204.0
margin_bottom = 517.0

[node name="Label" type="Label" parent="Panel/success_panel"]
margin_left = 11.0
margin_top = 16.0
margin_right = 178.0
margin_bottom = 80.0
text = "OBJETIVO CONCLUÍDO"

[node name="next_stage" type="Button" parent="Panel/success_panel"]
margin_left = 29.0
margin_top = 39.0
margin_right = 128.0
margin_bottom = 74.0
text = "Próxima Fase"

[node name="lose_panel" type="Panel" parent="Panel"]
editor/display_folded = true
margin_left = 27.0
margin_top = 431.0
margin_right = 204.0
margin_bottom = 517.0

[node name="Label" type="Label" parent="Panel/lose_panel"]
margin_left = 11.0
margin_top = 16.0
margin_right = 183.0
margin_bottom = 80.0
text = "Objetivo não completado, clique em 'Clear' para recomeçar"
autowrap = true

[node name="GridLines" type="TileMap" parent="."]
modulate = Color( 1, 1, 1, 0.271059 )
z_index = -1
z_as_relative = false
tile_set = ExtResource( 6 )
format = 1
tile_data = PoolIntArray( 0, 0, 0, 1, 0, 0, 2, 0, 0, 3, 0, 0, 4, 0, 0, 5, 0, 0, 6, 0, 0, 7, 0, 0, 8, 0, 0, 9, 0, 0, 10, 0, 0, 11, 0, 0, 12, 0, 0, 65536, 0, 0, 65537, 0, 0, 65538, 0, 0, 65539, 0, 0, 65540, 0, 0, 65541, 0, 0, 65542, 0, 0, 65543, 0, 0, 65544, 0, 0, 65545, 0, 0, 65546, 0, 0, 65547, 0, 0, 65548, 0, 0, 131072, 0, 0, 131073, 0, 0, 131074, 0, 0, 131075, 0, 0, 131076, 0, 0, 131077, 0, 0, 131078, 0, 0, 131079, 0, 0, 131080, 0, 0, 131081, 0, 0, 131082, 0, 0, 131083, 0, 0, 131084, 0, 0, 196608, 0, 0, 196609, 0, 0, 196610, 0, 0, 196611, 0, 0, 196612, 0, 0, 196613, 0, 0, 196614, 0, 0, 196615, 0, 0, 196616, 0, 0, 196617, 0, 0, 196618, 0, 0, 196619, 0, 0, 196620, 0, 0, 262144, 0, 0, 262145, 0, 0, 262146, 0, 0, 262147, 0, 0, 262148, 0, 0, 262149, 0, 0, 262150, 0, 0, 262151, 0, 0, 262152, 0, 0, 262153, 0, 0, 262154, 0, 0, 262155, 0, 0, 262156, 0, 0, 327680, 0, 0, 327681, 0, 0, 327682, 0, 0, 327683, 0, 0, 327684, 0, 0, 327685, 0, 0, 327686, 0, 0, 327687, 0, 0, 327688, 0, 0, 327689, 0, 0, 327690, 0, 0, 327691, 0, 0, 327692, 0, 0, 393216, 0, 0, 393217, 0, 0, 393218, 0, 0, 393219, 0, 0, 393220, 0, 0, 393221, 0, 0, 393222, 0, 0, 393223, 0, 0, 393224, 0, 0, 393225, 0, 0, 393226, 0, 0, 393227, 0, 0, 393228, 0, 0, 458752, 0, 0, 458753, 0, 0, 458754, 0, 0, 458755, 0, 0, 458756, 0, 0, 458757, 0, 0, 458758, 0, 0, 458759, 0, 0, 458760, 0, 0, 458761, 0, 0, 458762, 0, 0, 458763, 0, 0, 458764, 0, 0, 524288, 0, 0, 524289, 0, 0, 524290, 0, 0, 524291, 0, 0, 524292, 0, 0, 524293, 0, 0, 524294, 0, 0, 524295, 0, 0, 524296, 0, 0, 524297, 0, 0, 524298, 0, 0, 524299, 0, 0, 524300, 0, 0, 589824, 0, 0, 589825, 0, 0, 589826, 0, 0, 589827, 0, 0, 589828, 0, 0, 589829, 0, 0, 589830, 0, 0, 589831, 0, 0, 589832, 0, 0, 589833, 0, 0, 589834, 0, 0, 589835, 0, 0, 589836, 0, 0 )

[node name="Grid" type="TileMap" parent="."]
tile_set = ExtResource( 7 )
format = 1
tile_data = PoolIntArray( 0, 1, 0, 1, 1, 0, 2, 1, 0, 3, 1, 0, 4, 1, 0, 5, 1, 0, 6, 1, 0, 7, 1, 0, 8, 1, 0, 9, 1, 0, 10, 1, 0, 11, 1, 0, 12, 1, 0, 65536, 1, 0, 65537, 3, 0, 65548, 1, 0, 131072, 1, 0, 131075, 1, 0, 131084, 1, 0, 196608, 1, 0, 196612, 1, 0, 196620, 1, 0, 262144, 1, 0, 262150, 1, 0, 262151, 1, 0, 262152, 1, 0, 262153, 1, 0, 262154, 1, 0, 262155, 1, 0, 262156, 1, 0, 327680, 1, 0, 327686, 1, 0, 327692, 1, 0, 393216, 1, 0, 393222, 1, 0, 393228, 1, 0, 458752, 1, 0, 458758, 1, 0, 458764, 1, 0, 524288, 1, 0, 524300, 1, 0, 589824, 1, 0, 589835, 4, 0, 589836, 1, 0, 655360, 1, 0, 655361, 1, 0, 655362, 1, 0, 655363, 1, 0, 655364, 1, 0, 655365, 1, 0, 655366, 1, 0, 655367, 1, 0, 655368, 1, 0, 655369, 1, 0, 655370, 1, 0, 655371, 1, 0, 655372, 1, 0 )
script = ExtResource( 8 )

[node name="Actor" parent="Grid" instance=ExtResource( 9 )]
position = Vector2( 481.077, 352.388 )

[node name="Pivot" parent="Grid/Actor" index="2"]
editor/display_folded = true

[node name="plug" type="Node2D" parent="Grid"]
position = Vector2( 92.4049, 89.4686 )
z_index = 1
script = ExtResource( 10 )
type = 3

[node name="socket" type="Node2D" parent="Grid"]
position = Vector2( 735.386, 612.036 )
z_index = 1
script = ExtResource( 10 )
type = 4
[connection signal="item_activated" from="Panel/possible_moves" to="." method="_on_possible_moves_item_activated"]
[connection signal="item_rmb_selected" from="Panel/list_of_moves" to="." method="_on_list_of_moves_item_rmb_selected"]
[connection signal="rmb_clicked" from="Panel/list_of_moves" to="." method="_on_list_of_moves_rmb_clicked"]
[connection signal="button_down" from="Panel/letsgo" to="." method="_on_letsgo_button_down"]
[connection signal="button_down" from="Panel/clear" to="." method="_on_clear_button_down"]
[connection signal="button_down" from="Panel/success_panel/next_stage" to="." method="_on_next_stage_button_down"]

[editable path="Grid/Actor"]
